Project Code Appendix: Predicting Heart Disease
…
# Summarize Model Evaluation Metrics (CV)
collect_metrics(tune_output) %>%
  filter(.metric == 'rmse') %>% # or choose mae
  select(penalty, rmse = mean) 

## # A tibble: 30 x 2
##    penalty  rmse
##      <dbl> <dbl>
##  1   0.1    17.6
##  2   0.117  17.6
##  3   0.137  17.6
##  4   0.161  17.6
##  5   0.189  17.6
##  6   0.221  17.6
##  7   0.259  17.6
##  8   0.304  17.6
##  9   0.356  17.6
## 10   0.418  17.6
## # ... with 20 more rows

tune_output%>%
  collect_metrics(summarise = TRUE)

## # A tibble: 60 x 7
##    penalty .metric .estimator  mean     n std_err .config              
##      <dbl> <chr>   <chr>      <dbl> <int>   <dbl> <chr>                
##  1   0.1   mae     standard    13.3    15   0.343 Preprocessor1_Model01
##  2   0.1   rmse    standard    17.6    15   0.706 Preprocessor1_Model01
##  3   0.117 mae     standard    13.3    15   0.343 Preprocessor1_Model02
##  4   0.117 rmse    standard    17.6    15   0.707 Preprocessor1_Model02
##  5   0.137 mae     standard    13.3    15   0.343 Preprocessor1_Model03
##  6   0.137 rmse    standard    17.6    15   0.708 Preprocessor1_Model03
##  7   0.161 mae     standard    13.3    15   0.344 Preprocessor1_Model04
##  8   0.161 rmse    standard    17.6    15   0.709 Preprocessor1_Model04
##  9   0.189 mae     standard    13.3    15   0.345 Preprocessor1_Model05
## 10   0.189 rmse    standard    17.6    15   0.710 Preprocessor1_Model05
## # ... with 50 more rows
…
OOB Metrics

# Custom Function to get OOB predictions, true observed outcomes and add a user-provided model label
rf_OOB_output <- function(fit_model, model_label, truth){
    tibble(
          .pred_class = fit_model %>% extract_fit_engine() %>% pluck('predictions'), #OOB predictions
          HeartDisease_binary = truth,
          label = model_label
      )
}

#check out the function output
rf_OOB_output(data_fit,2, heart %>% pull(HeartDisease_binary))

## # A tibble: 914 x 3
##    .pred_class HeartDisease_binary label
##    <fct>       <fct>               <dbl>
##  1 false       false                   2
##  2 false       true                    2
##  3 false       false                   2
##  4 true        true                    2
##  5 false       false                   2
##  6 false       false                   2
##  7 false       false                   2
##  8 false       false                   2
##  9 true        true                    2
## 10 false       false                   2
## # ... with 904 more rows
…
